name,link,img_url
Valeria Demyanyuk,https://www.facebook.com/valeria.demyanyuk,https://scontent-waw1-1.xx.fbcdn.net/v/t1.0-9/22549736_934268483377924_8352291175591924076_n.jpg?oh=2951a651f3bdff1ed565c24e3b605f4a&oe=5AAC2232
Alexandr Kravchuk,https://www.facebook.com/alexandr.kravchuk.98,https://scontent-waw1-1.xx.fbcdn.net/v/t1.0-9/20108170_917527788385008_3526451122779776141_n.jpg?oh=3c28e2c80086972534cc44dab8da1297&oe=5AA4018E
Алексей Федоренчик,https://www.facebook.com/o.fedorenchyk,https://scontent-waw1-1.xx.fbcdn.net/v/t1.0-9/16865221_1628944670452592_2959758568469483599_n.jpg?oh=af60c57ac133784392a8881a0b06fa38&oe=5A8DCB51
Artem Serdyuk,https://www.facebook.com/ekartem,https://scontent-waw1-1.xx.fbcdn.net/v/t1.0-9/22851798_1703170413060550_5728037221086273453_n.jpg?oh=2e63feeece61e7073f75f1efa0d12d3b&oe=5A98FE78
Sanya Kotvitsky,https://www.facebook.com/profile.php?id=100006570826288,https://scontent-waw1-1.xx.fbcdn.net/v/t1.0-9/21616227_1989712417924433_1611184961476948943_n.jpg?oh=a3b10380f3e89c27bd68efa4ea7a9ab7&oe=5A97CCDB
Олексій Біляченко,https://www.facebook.com/profile.php?id=100007812167533,https://scontent-frt3-1.xx.fbcdn.net/v/t1.0-9/21369338_1944029579200762_6974415262156191557_n.jpg?oh=b828c8ba4d4643d0b8ce32312fc0cf60&oe=5A8F63B8
Алексей Жигадло,https://www.facebook.com/alex.zhigadlo,https://scontent-frt3-1.xx.fbcdn.net/v/t1.0-9/13315464_256521668037973_8890708137018551764_n.jpg?oh=1e5c37908387daa9bb21fe8d44d83fce&oe=5AAC4673
Гиляновский Артур,https://www.facebook.com/gilyanovskii.art,https://scontent-frx5-1.xx.fbcdn.net/v/t1.0-9/12924419_915523538565498_1519134707902193833_n.jpg?oh=2940ca6e0efe6bce248c222a2fa0b3d7&oe=5A9D71FF
Maksim Andriychuk,https://www.facebook.com/maksim.andriychuk.7,https://scontent-frx5-1.xx.fbcdn.net/v/t1.0-9/22780591_495607857483363_5455805104001666605_n.jpg?oh=d68ee36ac9d7e7b19b4e39d500901478&oe=5A981DB1
Aleksander Bulakh,https://www.facebook.com/profile.php?id=100007658748428,https://scontent-frx5-1.xx.fbcdn.net/v/t1.0-9/15380660_1787168541548420_5431585266969887993_n.jpg?oh=d962021336085d66528b2a1804bb7042&oe=5A97F452
Alexei Smolyanov,https://www.facebook.com/alexei.smolyanov,https://scontent-frx5-1.xx.fbcdn.net/v/t1.0-9/23167673_1632304070177216_5929120668797215055_n.jpg?oh=8a47072c1334f33353058d35f7db2f8e&oe=5AA01664
Жека Ходоровский,https://www.facebook.com/profile.php?id=100013390126082,https://scontent-frx5-1.xx.fbcdn.net/v/t1.0-9/19029552_308276549628680_1409961880234815288_n.jpg?oh=c9dd665b8f14a6764792d2c39c4aaa6c&oe=5A95F339
Vitalii Romanchuk,https://www.facebook.com/vitalyi.romanchuk,https://scontent-frx5-1.xx.fbcdn.net/v/t1.0-9/13690822_1159989850688730_8394966589683069479_n.jpg?oh=27ef553369f2192f09dd1a0627596e10&oe=5AAA6751
Владимир Голинский,https://www.facebook.com/profile.php?id=100012529470546,https://scontent-frx5-1.xx.fbcdn.net/v/t1.0-9/13346586_100552853705697_2280030819531041428_n.jpg?oh=5f6535293098a58739e92a4b1bd5efeb&oe=5AD6C0DB
Kyrylo Hrecheniuk,https://www.facebook.com/kyrylo.hrecheniuk,https://scontent-frx5-1.xx.fbcdn.net/v/t1.0-9/21105694_854704428027312_3646371348093129479_n.jpg?oh=8f12acd51bba0112e8462509460b5255&oe=5AA86C4F
Bilo Chorna,https://www.facebook.com/marina.biloshitska,https://scontent-frx5-1.xx.fbcdn.net/v/t1.0-9/20292586_1830530470595455_845027313284811461_n.jpg?oh=f91abb00a345e5a096df4e0cbb099f8a&oe=5A94F863
Макс Лісневський,https://www.facebook.com/maks.lisnevsky,https://scontent-frx5-1.xx.fbcdn.net/v/t1.0-9/13179057_116693438739468_5666229855423259626_n.jpg?oh=d59a57da1f525028222d69e35e466f17&oe=5AAA814F
Sasha Shrol,https://www.facebook.com/sasha.shrol.3,https://scontent-frx5-1.xx.fbcdn.net/v/t1.0-9/22489670_160339524551093_6616343405217972512_n.jpg?oh=1f237eaeacfd45dc98418ea411a2347b&oe=5AD59FFD
Bohdan Kolosivskyi,https://www.facebook.com/bodi4ka,https://scontent-frx5-1.xx.fbcdn.net/v/t1.0-9/22089450_371424399956108_1362971114961066270_n.jpg?oh=3de2af6f2d9756642716c4f6ac966b58&oe=5A8B1056
Dmitry Pavlenko,https://www.facebook.com/basketpavlenko,https://scontent-frx5-1.xx.fbcdn.net/v/t1.0-9/15697952_1300969653308924_210815028952603809_n.jpg?oh=6b4c6331246306368e6919b4eb010e08&oe=5A9295D1
Artur Mars,https://www.facebook.com/profile.php?id=1583221622,https://scontent-frt3-2.xx.fbcdn.net/v/t1.0-9/21768086_10212560584721268_2889525851709851902_n.jpg?oh=8875551db8b80472ba8c7f1f8c8a9b4d&oe=5A89624B
Roman Gutsul,https://www.facebook.com/roman.amicitia,https://scontent-frt3-2.xx.fbcdn.net/v/t1.0-9/21766723_377905355975336_6294612988899855973_n.jpg?oh=7444ac9db0f071c40d9eb5d26e231f95&oe=5A9F3252
Дмитрий Козырь,https://www.facebook.com/kozurevich,https://scontent-frt3-2.xx.fbcdn.net/v/t1.0-9/22141177_1689107847828159_6387969742231784183_n.jpg?oh=b3af192cfcc5d5253d1ced691bc4da18&oe=5A988B25
Tania Voitovich,https://www.facebook.com/tania.voitovich.3,https://scontent-frt3-2.xx.fbcdn.net/v/t1.0-9/20106319_124641678149866_7339507236498404073_n.jpg?oh=68bbb1e8e4db2b2ac4e8cc459391b6ec&oe=5AD615BC
Вадим Вердер,https://www.facebook.com/VadimVerder,https://scontent-frt3-2.xx.fbcdn.net/v/t1.0-9/21271229_146175029306560_558981999621632043_n.jpg?oh=b17863bc7e07d9bf41401885e6a75c40&oe=5A9A295B
Філіп Альїд,https://www.facebook.com/philip.alid,https://scontent-frt3-2.xx.fbcdn.net/v/t1.0-9/22549732_10203564192702073_7143612190034893529_n.jpg?oh=0fbfbab8c105bfdfe41fa02b481c49e5&oe=5AA0A120
Patrick Sushitskiy,https://www.facebook.com/profile.php?id=100001613153807,https://scontent-frt3-2.xx.fbcdn.net/v/t1.0-9/18893361_1438119522918472_1196067657446954554_n.jpg?oh=b794757514071010c1406e3a35e832f5&oe=5A8FEF62
Vladimir Nikolaichuk,https://www.facebook.com/profile.php?id=100008302279367,https://scontent-frt3-2.xx.fbcdn.net/v/t1.0-9/18620211_1957178444568879_6701003752666929224_n.jpg?oh=355e759e0d30282c06b2c54064622b0d&oe=5A8CB200
Yaroslav Buts,https://www.facebook.com/buts26,https://scontent-frt3-2.xx.fbcdn.net/v/t1.0-9/22049881_1615412745191596_852457343515874972_n.jpg?oh=707633340e9941278153e0ff0967c85b&oe=5A8E6FCC
Сергій Нагорний,https://www.facebook.com/sergey.nagorny,https://scontent-frt3-2.xx.fbcdn.net/v/t1.0-9/23722291_10215244362966685_1033062708957004281_n.jpg?oh=0585051ebdb73f657eb1edc7bc240988&oe=5A8D4173
Mykola Pisenko,https://www.facebook.com/mykola.pisenko,https://scontent-frt3-2.xx.fbcdn.net/v/t1.0-9/16473559_1855059598100695_3187653041038084701_n.jpg?oh=a68c15d397a559a75467f79fcd283f2c&oe=5A8D7C62
Andrew Lazurkevich,https://www.facebook.com/andrey.lazyrkevitch,https://scontent-frt3-2.xx.fbcdn.net/v/t1.0-9/21764857_872932436203861_2728472219195199539_n.jpg?oh=85fe09bce9de3bf6abfcd6ea5eadee22&oe=5AD586F4
Denis Vakhovitch,https://www.facebook.com/vakhovitch,https://scontent-frt3-2.xx.fbcdn.net/v/t1.0-9/12801508_159688267753794_8133057588058956838_n.jpg?oh=d7a91dc67d36d713c7d2c3a5eeb315f1&oe=5A92BBE0
Ярослав Губрієнко,https://www.facebook.com/YaroslavHubriienko,https://scontent-frt3-2.xx.fbcdn.net/v/t1.0-9/22490169_1495482883853712_383456851558239886_n.jpg?oh=76f82b6b24db51eedce53a0eecb03f76&oe=5AD44AD1
Eugene Babinov,https://www.facebook.com/babingood,https://scontent-frt3-2.xx.fbcdn.net/v/t1.0-9/21617591_10210317691482210_9050798539308701503_n.jpg?oh=803beedbab4f61c849dcf2d04a752a42&oe=5AD24FC7
Artem Bozovchuk,https://www.facebook.com/bazikpolevaya,https://scontent-frt3-2.xx.fbcdn.net/v/t1.0-9/22089013_121878811846372_9179645156051249490_n.jpg?oh=70b8fdee0f1f33bd451013517067f08e&oe=5A9E627A
Zahar Berkut,https://www.facebook.com/profile.php?id=100006467453040,https://scontent-frt3-2.xx.fbcdn.net/v/t1.0-9/1229869_1412764588949109_912597482_n.jpg?oh=0a45256089ddc9f23a3987a9789ec503&oe=5A97BA64
Anton Pelykh,https://www.facebook.com/antony.pelykh,https://scontent-frt3-2.xx.fbcdn.net/v/t1.0-9/14581339_1280294095336811_2861608966104631199_n.jpg?oh=54ef7c7e9f77bbf7bca3c0489dd0c780&oe=5A9ACB65
Ярослав Волошин,https://www.facebook.com/pinturikkio.ua,https://scontent-frt3-2.xx.fbcdn.net/v/t1.0-9/21272365_1919674144970030_1998617578851240809_n.jpg?oh=457f3f48f08b24b730d4f89f6827216c&oe=5A9BA31C
Olexandr Kondratyuk,https://www.facebook.com/oleksandrkondratuk,https://scontent-frt3-2.xx.fbcdn.net/v/t31.0-8/22770641_726865277505262_7016485895415164950_o.jpg?oh=0ff3fa88e420def6bf22bd4607d9c996&oe=5A992EFE
Mykola Marussyk,https://www.facebook.com/marussyk,https://scontent-frt3-2.xx.fbcdn.net/v/t1.0-9/23518809_10209973896896213_3811821559806376676_n.jpg?oh=c4e32d4a127d3603e535c04fac26ae91&oe=5A955385
Віталій Беляк,https://www.facebook.com/profile.php?id=100017372222186,https://scontent-frt3-2.xx.fbcdn.net/v/t1.0-9/18555909_100781413844266_4948383420240824799_n.jpg?oh=9af1f84feff76dbccf707e9dc928ec90&oe=5A9C930D
Andrey Arkhipov,https://www.facebook.com/phot.a.arkhipov,https://scontent-frt3-2.xx.fbcdn.net/v/t1.0-9/21272336_472358473139601_1936452022784684637_n.jpg?oh=cf92324585bf3eb8cb9cf61b5f1d0b09&oe=5AA2A9F9
Віталій Терентьєв,https://www.facebook.com/vitaliy.terentyev.3,https://scontent-frt3-2.xx.fbcdn.net/v/t1.0-9/23795030_1503801319735244_3206923547537740942_n.jpg?oh=b9ba53ab2358c2755ba1cc5633bf6e8a&oe=5A94F774
Dyrdzik Yauheni,https://www.facebook.com/Ya.Dyrdykiv,https://scontent-frt3-2.xx.fbcdn.net/v/t1.0-9/20526358_1575673009164088_485061700113098380_n.jpg?oh=9b2da56f6fd42dda7a7e232f885a674a&oe=5A9BA134
Dima Kulyk,https://www.facebook.com/dima.kulyk,https://scontent-frt3-2.xx.fbcdn.net/v/t1.0-9/18485859_1427956830608245_476634183098922785_n.jpg?oh=f30cbf77aebd61b06b341d9f3cedad16&oe=5A8A3F70
Andrew Yevdoschuk,https://www.facebook.com/andrew.yevdoschuk,https://scontent-frt3-2.xx.fbcdn.net/v/t1.0-9/18519429_427120561003070_8667671603372533269_n.jpg?oh=192958deef28c69afe61ce6ab8fdefa4&oe=5AD5528A
Elvin Kristian,https://www.facebook.com/elvinkristian,https://scontent-frt3-2.xx.fbcdn.net/v/t31.0-8/19144081_10213698525000625_5525898330813263415_o.jpg?oh=b642b810c3026fb1f316b642cad11cf5&oe=5A9762B4
Даня Кривошей,https://www.facebook.com/profile.php?id=100001859509341,https://scontent-frt3-2.xx.fbcdn.net/v/t1.0-9/18922097_1502214526517183_7894415105425242106_n.jpg?oh=1736ef65b2243c1bd06ddbf75d85d24e&oe=5AD3F28B
Жигадло Андрій,https://www.facebook.com/azhyhadlo,https://scontent-frt3-2.xx.fbcdn.net/v/t31.0-8/10630631_681393248608654_4055131428851258675_o.jpg?oh=142ef17b424a1f065af7c5be4e366100&oe=5A9CE559
Bohdan Muskyy,https://www.facebook.com/bohdan.muskyy,https://scontent-frt3-2.xx.fbcdn.net/v/t1.0-9/19989550_1312324372219116_4558574941726982958_n.jpg?oh=d45305b9f5304aee92203bdc2082e1a0&oe=5A8EB16E
Ваня Якимов,https://www.facebook.com/yakimov.kiev,https://scontent-frt3-2.xx.fbcdn.net/v/t1.0-9/18555890_1321918384523186_5981759553624934189_n.jpg?oh=c1225cf76897ebbfb9878c33a6a3af56&oe=5AA45E39
Vlad Velichko,https://www.facebook.com/vlad.velichko.355,https://scontent-frt3-2.xx.fbcdn.net/v/t1.0-9/19656923_1808175356179432_5390837552566331418_n.jpg?oh=35b3758ae4773e159fff64d28e82310c&oe=5AD6BA80
Владимир Карышев,https://www.facebook.com/profile.php?id=100008238300175,https://scontent-frt3-2.xx.fbcdn.net/v/t1.0-9/11232893_1608450276106234_2606348849767967115_n.jpg?oh=a050f748fe68d8e2894b374a553dccaa&oe=5AD55114
Maxim Zaselian,https://www.facebook.com/marakasina,https://scontent-frt3-2.xx.fbcdn.net/v/t1.0-9/19554374_10213668137963039_7673542630548927188_n.jpg?oh=6aa0435bb1341e36fd7739a8c099fede&oe=5A96572A
Вадім Миколайчук,https://www.facebook.com/mrvadym,https://scontent-frt3-2.xx.fbcdn.net/v/t1.0-9/10430405_810829255631696_8381580520545964860_n.jpg?oh=114fbe78b03f0d4eab1ae02978b20044&oe=5AD5DB4C
Максим Иванчук,https://www.facebook.com/profile.php?id=100017175308265,https://scontent-frt3-2.xx.fbcdn.net/v/t1.0-9/20264743_144684676114042_775712738559979840_n.jpg?oh=8e58ea9e2c9617c0ebfa2135307fe0c5&oe=5AA26E16
Александр Синюк,https://www.facebook.com/synyukalex,https://scontent-frt3-2.xx.fbcdn.net/v/t1.0-9/22308960_1445008962264144_7754481277697850414_n.jpg?oh=9fe62c8ab6db16854d68480e431c2118&oe=5AA52E36
Денис Ливинский,https://www.facebook.com/portsmen,https://scontent-frt3-2.xx.fbcdn.net/v/t1.0-9/292696_291971437551072_2141717392_n.jpg?oh=fb4c642c2e67327a097099e4a59d9e85&oe=5A97BB4B
Андрій Талько,https://www.facebook.com/malui.de,https://scontent-frt3-2.xx.fbcdn.net/v/t1.0-9/11836927_996575007060483_4121692410511990632_n.jpg?oh=8870c15883827c57c9d9d2efcc210e11&oe=5AA7D54F
Сергій Червінський,https://www.facebook.com/samyray666,https://scontent-frt3-2.xx.fbcdn.net/v/t1.0-9/18739742_1494250337302559_6498576380077590537_n.jpg?oh=18d02dec69fea9fd45f161a773f4373b&oe=5A929DED
Yaroslav Bitiyev,https://www.facebook.com/profile.php?id=100010631377248,https://scontent-frt3-2.xx.fbcdn.net/v/t1.0-9/12289497_140052806359098_9026609081131298138_n.jpg?oh=9107d836c0262f752626f735ee7405e4&oe=5AD735BB
Юрій Якимчук,https://www.facebook.com/demoncdxliv,https://scontent-frt3-2.xx.fbcdn.net/v/t1.0-9/22405842_1480892485332937_1507872112521775132_n.jpg?oh=26eb738a8b0114f62b317f733a63845c&oe=5AA8CC6B
Andrii Udovychenko,https://www.facebook.com/andrii.42,https://scontent-frt3-2.xx.fbcdn.net/v/t1.0-9/14718611_907856709359137_3935135478654308050_n.jpg?oh=41191e78a7e570317af1860228ef4f43&oe=5A9A2011
Тимофей Милованов,https://www.facebook.com/profile.php?id=100004775745586,https://scontent-frt3-2.xx.fbcdn.net/v/t1.0-9/22528308_898478153654701_8329823160809233397_n.jpg?oh=b510b2a59cd86608c4b6b454f1f6cb00&oe=5AA3C723
Pasha Kholoshev,https://www.facebook.com/pavel.kholoshev,https://scontent-frt3-2.xx.fbcdn.net/v/t1.0-9/23519397_1539442142787954_8597159026285037508_n.jpg?oh=e366daefc3f12f3858017744b60463d7&oe=5A8DD809
Евгений Гузовский,https://www.facebook.com/profile.php?id=100015645039846,https://scontent-frt3-2.xx.fbcdn.net/v/t1.0-9/18556095_170151290183038_2004162521767559512_n.jpg?oh=7236d0750b8453d422269b28eb9da92a&oe=5A8CB894
Serhiy Gemberg,https://www.facebook.com/serhiy.gemberg,https://scontent-frt3-2.xx.fbcdn.net/v/t1.0-9/13342938_1148462221877269_5971857256653073275_n.jpg?oh=2fea616c1def421f76eb6dc4b10e8e44&oe=5A967F63
Ілля Ярема,https://www.facebook.com/yaremavox,https://scontent-frt3-2.xx.fbcdn.net/v/t1.0-9/13557886_713972115433044_2743874670242288764_n.jpg?oh=e9b591b7aeed149ed4180d07c90e767c&oe=5A8F3C2C
Sergii Trokhymyshyn,https://www.facebook.com/sergiitrokhymyshyn,https://scontent-frt3-2.xx.fbcdn.net/v/t1.0-9/15095442_782189175255606_6961001772539210667_n.jpg?oh=8516681064ebb677374439103dbf44c3&oe=5A8D7CA2
Vitaliy Tretiak,https://www.facebook.com/tretiakvitaliy,https://scontent-frt3-2.xx.fbcdn.net/v/t1.0-9/21617814_1976577172611400_7772802238937301536_n.jpg?oh=e11565dd924ea6ecfb54a8169b851b34&oe=5A90DC8B
Michael Martynov,https://www.facebook.com/martmichael,https://scontent-frt3-2.xx.fbcdn.net/v/t1.0-9/18519458_1426017290777823_6996768528346255431_n.jpg?oh=a6cad21471d370e36f1ef68091c0ecca&oe=5A9160B7
Vadym Dzekunov,https://www.facebook.com/vadym.dzekunov,https://scontent-frt3-2.xx.fbcdn.net/v/t1.0-9/20246397_1494911987198436_8882308585349932506_n.jpg?oh=5bb20cd770512d8c9eef464c3cc0c976&oe=5A9FE5A6
Volodymyr Zhygadlo,https://www.facebook.com/volodymyr.zhygadlo,https://scontent-frt3-2.xx.fbcdn.net/v/l/t1.0-9/23131897_517692985264402_7803664120832564690_n.jpg?oh=843f7824e4415e95a0625b7178dd91c4&oe=5AAA0DAF
Andrii Shelestiuk,https://www.facebook.com/ShelestiukAndrii,https://scontent-frt3-2.xx.fbcdn.net/v/t1.0-9/18034108_1461228833948895_592934926108684835_n.jpg?oh=4d661481b11e0f725716ee501df8dccd&oe=5A98AFB1
Sergey Onischenko,https://www.facebook.com/onysch,https://scontent-frt3-2.xx.fbcdn.net/v/t1.0-9/11061955_985090164842883_5786038605702739331_n.jpg?oh=bb76a77c40f5554ca73048eea4b5346b&oe=5AA4EA4B
Олександр Папірний,https://www.facebook.com/sashko.papirnyj,https://scontent-frt3-2.xx.fbcdn.net/v/t1.0-9/14517622_1121080311310898_4528819257683108185_n.jpg?oh=6bd6cf464b9d11ac73a89d4e33de8782&oe=5A8A9DBD
Yura Manilov,https://www.facebook.com/yura.manilov,https://scontent-frt3-2.xx.fbcdn.net/v/t1.0-9/14433209_1073566996064530_1234701656818999886_n.jpg?oh=9b2b35d7c5dcace7af4e688dafd46560&oe=5A8C7D02
Anton Marchuk,https://www.facebook.com/anton.marchuuk,https://scontent-frt3-2.xx.fbcdn.net/v/t1.0-9/19554919_1323876477732344_2647530283603364653_n.jpg?oh=fb2b8aabcc1075661ab8e9a9dfa5ad77&oe=5AD6D298
Myach Dreadball,https://www.facebook.com/myach.dreadball,https://scontent-frt3-2.xx.fbcdn.net/v/t1.0-9/20727840_1726389744330092_580329695985902267_n.jpg?oh=937e0751eae7422a6688e568545b9907&oe=5AD5861A
David Movsesian,https://www.facebook.com/profile.php?id=100004867752419,https://scontent-frt3-2.xx.fbcdn.net/v/t1.0-9/20800299_773914676114117_9015779888379974206_n.jpg?oh=ad2291ceb51875b01d1eafe8121ab5bb&oe=5A9FDC6B
Mykola Humeniuk,https://www.facebook.com/mykola.humeniuk10.02,https://scontent-frt3-2.xx.fbcdn.net/v/t1.0-9/22815221_1929831863932803_2373709094898347949_n.jpg?oh=bd3ab16c98264575fb3e301646ad8bd8&oe=5AA86609
Max Hodlevskyi,https://www.facebook.com/hodlevskyi,https://scontent-frt3-2.xx.fbcdn.net/v/t1.0-9/18486173_1527483520658330_4638200094372119906_n.jpg?oh=25ea63921a35f039cbc7a300d3af5251&oe=5A9AF02D
Артем Козорез,https://www.facebook.com/artem.kozorez,https://scontent-frt3-2.xx.fbcdn.net/v/t1.0-9/16143315_1494900443884117_8568948226407104597_n.jpg?oh=7369cb2a8ddc8a8788ed0c2c24b0dc67&oe=5A920DC0
Michael Vidyakin,https://www.facebook.com/michael.vidyakin,https://scontent-frt3-2.xx.fbcdn.net/v/t1.0-9/21731320_10209755142945312_7490053065202518428_n.jpg?oh=6141f45636dec4c1522b06428784db95&oe=5AA7D1F0
Danylo Tsvok,https://www.facebook.com/danylo.tsvok,https://scontent-frt3-2.xx.fbcdn.net/v/t1.0-9/20915226_1474533109307393_4633753908369158122_n.jpg?oh=a356379b3460d97a9e27fc3a1eea5a9f&oe=5A9E09B4
Димон Коломиец,https://www.facebook.com/profile.php?id=100022909703267,https://scontent-frt3-2.xx.fbcdn.net/v/t1.0-9/23843333_132647370842252_1089568519598868695_n.jpg?oh=5df568a7b545c4495ca8d15e778ac545&oe=5A8D4A36
Max Zhalomski,https://www.facebook.com/Maksym.Zhalomskyi,https://scontent-frt3-2.xx.fbcdn.net/v/t1.0-9/14681853_699083490254117_9192172611238522783_n.jpg?oh=afd586c7aa3949b8e7a5129ffb191451&oe=5AA7A18C
Сергій Михальчук,https://www.facebook.com/profile.php?id=100022535235038,https://scontent-frt3-2.xx.fbcdn.net/v/t1.0-9/22852971_127203918040782_9080353772318491431_n.jpg?oh=f952889b789b6817b7eea0f322952223&oe=5AA70047
Павло Зубович,https://www.facebook.com/profile.php?id=100015956322115,https://scontent-frt3-2.xx.fbcdn.net/v/t1.0-9/17523481_110895176119026_5017260327836359254_n.jpg?oh=e485f2fd28d0ccfa2c97dd4fbc62887c&oe=5A9B4E26
Eligio Hunter,https://www.facebook.com/eligio.hunter,https://scontent-frt3-2.xx.fbcdn.net/v/t1.0-9/19260280_104649033483869_2007748500709997804_n.jpg?oh=9b9fc1525ed0b354a19cece1cdc419e7&oe=5A9CCC2E
Aleksandr Verbitskyi,https://www.facebook.com/verbitskyi.aleksandr,https://scontent-frt3-2.xx.fbcdn.net/v/t1.0-9/21496_912289115556824_4265952439936957757_n.jpg?oh=d4c0748c38fc84fbd9de13c4e724e278&oe=5AA2BD1B
Игорь Васильев,https://www.facebook.com/VasilevIgor,https://scontent-frt3-2.xx.fbcdn.net/v/t1.0-9/22491608_10212866067824803_6907454572320304073_n.jpg?oh=0fa51d8e743dc642e16085ae85489ca3&oe=5A925F29
Pavel Solovyev,https://www.facebook.com/TheSolovey4ik,https://scontent-frt3-2.xx.fbcdn.net/v/t1.0-9/18882020_416617698714087_259301358514606764_n.jpg?oh=e858b5cf959b3aeee7b5ace2ad1b2643&oe=5A94DFDB
Юрий Усенко,https://www.facebook.com/usenkoyury,https://scontent-frt3-2.xx.fbcdn.net/v/t1.0-9/535060_1004726746258660_5404920381400782764_n.jpg?oh=bd4a127382ad59a0f9d7ed82d7b89f73&oe=5A8B799E
Олександра Поскребушева,https://www.facebook.com/profile.php?id=100017902091914,https://scontent-frt3-2.xx.fbcdn.net/v/t1.0-9/18951195_105388353401234_3338365408915188331_n.jpg?oh=f8971e9b1c67cf4274a35731b45c4cc0&oe=5A912826
Kostya Shevchook,https://www.facebook.com/kostya.shevchook.1,https://scontent-frt3-2.xx.fbcdn.net/v/t1.0-9/20375944_412519282477650_5217915432348007802_n.jpg?oh=3097e1161311693d7e019e8497031287&oe=5A91E077
Евгений Анатолиевич,https://www.facebook.com/profile.php?id=100020007226571,https://scontent-frt3-2.xx.fbcdn.net/v/t1.0-9/22552873_123040121706228_3293394782040509867_n.jpg?oh=e3c38066b6b8317087eb4f0254a05a27&oe=5AD39F43
,https://www.facebook.com/profile.php?id=100007185762820,https://scontent-frt3-2.xx.fbcdn.net/v/t1.0-9/18034062_1852152141700960_6418417902247332696_n.jpg?oh=7142446e277eb70410f447bdf64e62cd&oe=5A8B7CCD
Вячеслав Онофрийчук,https://www.facebook.com/vyacheslav.onofriychuk,https://scontent-frt3-2.xx.fbcdn.net/v/t1.0-9/16298785_412284732444645_7384326017829864_n.jpg?oh=49d179c2113cbe92bea1dc73bab39e9c&oe=5AA266CF
Олександр Мегіс,https://www.facebook.com/profile.php?id=100002106096881,https://scontent-frt3-2.xx.fbcdn.net/v/t1.0-9/180192_101414746605395_6386778_n.jpg?oh=2c36255ef2aee16066437c3214d02669&oe=5A9DE17A
Женя Беглай,https://www.facebook.com/profile.php?id=100018676659041,https://scontent-frt3-2.xx.fbcdn.net/v/t1.0-9/19511143_103059290326626_7284658189450215678_n.jpg?oh=47c2c88f2afe4d0c9b49f4ff3ad1540b&oe=5A9011A7
Dmytro Khomyak,https://www.facebook.com/dmytro.khomyak,https://scontent-frt3-2.xx.fbcdn.net/v/t1.0-9/11960021_891708277584378_848899414424846493_n.jpg?oh=e3efc67b65c0cf1bbe6800684b449c62&oe=5A9E64EC
Yaroslav Kravchuk,https://www.facebook.com/yaroslav.v.kravchuk,https://scontent-frt3-2.xx.fbcdn.net/v/t1.0-9/11060244_1388967268095693_3478927078904444383_n.jpg?oh=edc582c2188413c798de030b59f05b03&oe=5A93954A
Paul Khodakovsky,https://www.facebook.com/pavellhd,https://scontent-frt3-2.xx.fbcdn.net/v/t1.0-9/20994292_10214213546796483_1527901499917308746_n.jpg?oh=75cb25368cf59bf74aae887a68622f51&oe=5A88EE0F
Denhik Kotov,https://www.facebook.com/denhik.kotov,https://scontent-frt3-2.xx.fbcdn.net/v/t1.0-9/19060152_105948503351632_6968880593379774294_n.jpg?oh=f3fd6adf7b1f57d34160feaf1e2f64d1&oe=5AA67241
Andrey Mudrov,https://www.facebook.com/andrey.mudrov.3,https://scontent-frt3-2.xx.fbcdn.net/v/t1.0-9/317610_2462935906172_473289153_n.jpg?oh=ff65358695b04fd81ee48dcc6ac81c4b&oe=5A937E81
Дмитро Захарчук,https://www.facebook.com/you.will.neven.walk.alone,https://scontent-frt3-2.xx.fbcdn.net/v/t1.0-1/18664216_289106838216237_8956244419732849815_n.jpg?oh=a46bbad63024fd4e1837458413cc73de&oe=5A8F9B86
Артур Железко,https://www.facebook.com/profile.php?id=100017128004794,https://scontent-frt3-2.xx.fbcdn.net/v/t1.0-9/18555972_113466445900955_2765436733679236668_n.jpg?oh=3ba79a4c17a7f3c84dd9ee54307d0878&oe=5AA47DA6
Роман Головійчук,https://www.facebook.com/profile.php?id=100017379253710,https://scontent-frt3-2.xx.fbcdn.net/v/t1.0-9/22491767_159581194631188_6527666237471268378_n.jpg?oh=c5d6713383b49da64f892b4875dfe480&oe=5A94FC01
Сергій Семененко,https://www.facebook.com/serhyiko,https://scontent-frt3-2.xx.fbcdn.net/v/t1.0-9/22154514_161938411056260_8972786893606951542_n.jpg?oh=a46751db69463d3f8ef2f1454930ffa9&oe=5AA3FCFC
Санька Червинский,https://www.facebook.com/profile.php?id=100017256940710,https://scontent-frt3-2.xx.fbcdn.net/v/t1.0-9/18556984_105225623396002_2499564621355458324_n.jpg?oh=a41d450c3851a80f00065b70df5e7338&oe=5A99165B
Vlad Goncharenko,https://www.facebook.com/vlad.goncharenko.14,https://scontent-frt3-2.xx.fbcdn.net/v/t1.0-9/21430524_228497421014925_7655682693243200367_n.jpg?oh=f0f79dfd8a6af58f2fc281f57755345f&oe=5A9CA6C5
Ilya Lytvynchuk,https://www.facebook.com/new.borov.stalker,https://scontent-frt3-2.xx.fbcdn.net/v/t1.0-9/18620370_809422595873687_5413241932077620377_n.jpg?oh=6a6b719659f501c03543e84183332a90&oe=5A8A63D1
Юра Новик,https://www.facebook.com/dnbnos,https://scontent-frt3-2.xx.fbcdn.net/v/t1.0-9/18557252_1399933316732395_8219233853261439911_n.jpg?oh=3a6410b9b9c79bbcebf3c906a6809ad9&oe=5A9C2F5F
Александр Ткаченко,https://www.facebook.com/profile.php?id=100015370064997,https://scontent-frt3-2.xx.fbcdn.net/v/t1.0-9/21731365_251022545420079_5119641319277304625_n.jpg?oh=81c6b794eb5e2975ac1ca327bd350825&oe=5AA9A7CA
Михайло Сорока,https://www.facebook.com/profile.php?id=100017101429150,https://scontent-frt3-2.xx.fbcdn.net/v/t31.0-8/18491397_112033979376649_541817399483381589_o.jpg?oh=62c721d74046f6d3598deebf8d6efb1a&oe=5AD3CBD4
Александр Ревуцкий,https://www.facebook.com/profile.php?id=100015430275111,https://scontent-frt3-2.xx.fbcdn.net/v/t1.0-9/22730200_253508801840127_4371052488525065757_n.jpg?oh=2890d533557f8b5f55b6fba36b076daa&oe=5A8AD7E1
Nikolay Bondarchuk,https://www.facebook.com/profile.php?id=100005923663729,https://scontent-frt3-2.xx.fbcdn.net/v/t1.0-9/19029264_623810314493085_5650407343689057943_n.jpg?oh=f8aeacbd998f3ffdc0b63727e01857e3&oe=5A919776
Игорь Семенюк,https://www.facebook.com/profile.php?id=100015576933850,https://scontent-frt3-2.xx.fbcdn.net/v/t1.0-9/21686109_235882856940944_2389513886256107001_n.jpg?oh=600f451bc04ca90665ef52cd1ded500a&oe=5A8F943A
Artem Laktionov,https://www.facebook.com/laktioartem,https://scontent-frt3-2.xx.fbcdn.net/v/t1.0-9/14705852_1276474005738502_8590669123647473632_n.jpg?oh=fc26fb1516afa441bd2c3ea7ac14e1e7&oe=5A8B4016
Dmytro Zhytomyrsky,https://www.facebook.com/dmytro.zhytomyrsky,https://scontent-frt3-2.xx.fbcdn.net/v/t1.0-9/10649618_731394540265480_6285065555690479843_n.jpg?oh=5d6c526d6e38d284726bce46fd2d12cc&oe=5A970D9F
Олександр Трохимчук,https://www.facebook.com/mr.trokhimchuk,https://scontent-frt3-2.xx.fbcdn.net/v/t1.0-9/13906870_1208894539142747_6303298909626309355_n.jpg?oh=668d98ac32c0955d45d23c3c8696a22c&oe=5A9D706D
Константин Сазонов,https://www.facebook.com/profile.php?id=100010573207624,https://scontent-frt3-2.xx.fbcdn.net/v/t1.0-9/16299270_374937022868735_3434814054070225882_n.jpg?oh=ab769bf0502d94435bbe7d6370c154fb&oe=5AD41727
Володимир Ковальчук,https://www.facebook.com/profile.php?id=100015827507954,https://scontent-frt3-2.xx.fbcdn.net/v/t1.0-9/22195256_218862488651333_8071379354789986163_n.jpg?oh=9d3707cbe545b30e9691036fd5202294&oe=5A899D2B
Dmytryi Mykhailovskui,https://www.facebook.com/profile.php?id=100006199690305,https://scontent-frt3-2.xx.fbcdn.net/v/t1.0-9/21752358_1914137368802901_6327624646336287524_n.jpg?oh=b27b89521e94be263b487898fcb911dc&oe=5A8CD551
Александр Калашников,https://www.facebook.com/alex0904,https://scontent-frt3-2.xx.fbcdn.net/v/t1.0-9/14192072_1147558448621313_1447009535580781169_n.jpg?oh=869b3b0ebf4643cdfebc000bbdc91111&oe=5A90A4EB
Andriy Kovalchuk,https://www.facebook.com/profile.php?id=100005600265755,https://scontent-frt3-2.xx.fbcdn.net/v/t1.0-9/22448478_711762955687040_2841887574014395623_n.jpg?oh=684712cf3ea29733679e62d884098e84&oe=5A8DE673
Ivan Onysko,https://www.facebook.com/theivanonysko,https://scontent-frt3-2.xx.fbcdn.net/v/t1.0-9/23244341_10214707251540847_7856013678994320104_n.jpg?oh=69022751032df4f857c2ba779fc3346c&oe=5AA8F0F7
Александр Гринин,https://www.facebook.com/alexandr.grynin,https://scontent-frt3-2.xx.fbcdn.net/v/t1.0-9/16143114_639431712906977_5732177650504478396_n.jpg?oh=2b493f1ab1be3eb327da6a4fb4dcd93f&oe=5AA04D3B
Pavel Barytskyi,https://www.facebook.com/pavel.barytskyi.3,https://scontent-frt3-2.xx.fbcdn.net/v/t1.0-9/17098540_105664719964856_2027125654550249588_n.jpg?oh=270d713ff0e1d2c07ad0c75df60464c6&oe=5A9A3F3A
Евгения Лагутенко,https://www.facebook.com/evgeniya.lagutenko,https://scontent-frt3-2.xx.fbcdn.net/v/t1.0-9/12646974_170441239995567_7862586389842848635_n.jpg?oh=33f935a9a870b57bd300d0a146630d0d&oe=5AD663DC
Zakharov Dima,https://www.facebook.com/profile.php?id=100008401712087,https://scontent-frt3-2.xx.fbcdn.net/v/t1.0-9/18893168_1765151727108201_8835123976101778163_n.jpg?oh=831fc7d4ad02a7a23b632c989c7ce797&oe=5A94EB35
Sviat Popov,https://www.facebook.com/sviat.popov,https://scontent-frt3-2.xx.fbcdn.net/v/t1.0-9/21151530_1647348195336366_2032152924851758265_n.jpg?oh=a25ac5273a48f47a506582a0c1b8b77c&oe=5A99935F
Глеб Коргун,https://www.facebook.com/glebkorgun,https://scontent-frt3-2.xx.fbcdn.net/v/t1.0-9/11133738_1395143914140372_6439946816074016009_n.jpg?oh=e4a81ff7b9114a85fbf1664d4c688506&oe=5A935E96
Vladimir Vladimirtsev,https://www.facebook.com/smike27010,https://scontent-frt3-2.xx.fbcdn.net/v/t1.0-9/21463252_1141060112705557_6636373760947178441_n.jpg?oh=7e1f89af52fbff4bfedf16c474405912&oe=5AA6B5CD
Aleksandr Tolochko,https://www.facebook.com/talonchik,https://scontent-frt3-2.xx.fbcdn.net/v/t1.0-9/14102694_10210875964322092_161571733309304940_n.jpg?oh=ea6a0e95ec2d8869e40b87c2cca1db5f&oe=5AA0E671
Viktor Melnichenko,https://www.facebook.com/viktor.melnichenko,https://scontent-frt3-2.xx.fbcdn.net/v/t1.0-9/10408983_638776732901551_3567020694182607069_n.jpg?oh=f9d415732fc365ff45171ad31570c763&oe=5AA16B58
Igor Kravchyshyn,https://www.facebook.com/kravchyshyn,https://scontent-frt3-2.xx.fbcdn.net/v/t1.0-9/19961345_10212920180134635_3651707403998378989_n.jpg?oh=620456e849a9b5e084438f4bd6c7f23e&oe=5AA80C19
Illia Tsarenko,https://www.facebook.com/illia.tsarenko,https://scontent-frt3-2.xx.fbcdn.net/v/t1.0-9/22554939_831543190358332_4475618593133902033_n.jpg?oh=3f40c2343f767b3f095aeff44c0eb130&oe=5AD6E333
Vanya Koshman,https://www.facebook.com/vanya.koshman,https://scontent-frt3-2.xx.fbcdn.net/v/t1.0-9/260580_223717687661145_1224241_n.jpg?oh=52b769c4232675f80f91e6a9ceedb808&oe=5A8C2F02
Andrey Kostenko,https://www.facebook.com/andrkostenko,https://scontent-frt3-2.xx.fbcdn.net/v/t1.0-9/16473016_780098362138832_6763603245701975847_n.jpg?oh=a71c602da191a7e1e8cd93097d495365&oe=5A95862F
Dmytro Tsybenko,https://www.facebook.com/dima.tsyb,https://scontent-frt3-2.xx.fbcdn.net/v/t1.0-1/12794554_1563765303938801_2944241075006960575_n.jpg?oh=d81b35b9fba46fc6a81c6e54ab30ebd7&oe=5AA150C7
Andriy Tkachuk,https://www.facebook.com/TkachukAndriy96,https://scontent-frt3-2.xx.fbcdn.net/v/t1.0-9/14633084_1026720560759673_8231014854957483383_n.jpg?oh=8f9b6abdada72e1f6dc0090ecc6e2172&oe=5A8FD4CB
Nelly Tytechko,https://www.facebook.com/nelly.tytechko,https://scontent-frt3-2.xx.fbcdn.net/v/t1.0-9/13680723_116154675492944_2445202852563751117_n.jpg?oh=ccbb52f4819b572e57fc5c6fa6e10354&oe=5AA6CCF0
Дехтяренко Сергей Сергеевич,https://www.facebook.com/profile.php?id=1768486820,https://scontent-frt3-2.xx.fbcdn.net/v/t1.0-9/1044267_10201425721482821_3686847050719412027_n.jpg?oh=dbffd69d9feeed780f5b3f71577d6716&oe=5AD30620
Ivan Andriiash,https://www.facebook.com/profile.php?id=100011435049799,https://scontent-frt3-2.xx.fbcdn.net/v/t1.0-9/14568053_342508779473621_4447742335394974313_n.jpg?oh=a4ead747a40c73168baed2a9bbab5380&oe=5AD27951
Maksym Kartsev,https://www.facebook.com/profile.php?id=100001826248674,https://scontent-frt3-2.xx.fbcdn.net/v/t1.0-9/10275956_659309684139900_822070310019303866_n.jpg?oh=9ab124e46986b858b6d54d16d8a93704&oe=5A8BD5A3
Olexandra Bozhenko,https://www.facebook.com/sana.bozhenochka,https://scontent-frt3-2.xx.fbcdn.net/v/t1.0-9/19030410_1946254502276181_348003295293099055_n.jpg?oh=216bbd29ddef3606453c7fab3c306ec8&oe=5A8A6567
Tania Voitovich,https://www.facebook.com/tania.voitovich.9,https://scontent-frt3-2.xx.fbcdn.net/v/t1.0-9/13537654_218027985262415_7934553444471354054_n.jpg?oh=731be8b6845256e047b1c422dbdd3e50&oe=5A9E84A1
Yevgen Ustinov,https://www.facebook.com/yevgen.ustinov,https://scontent-frt3-2.xx.fbcdn.net/v/t1.0-9/18486190_1424928547576563_6551547585776640626_n.jpg?oh=af950d78f17f352e6cb62516e32e70ee&oe=5A97292E
Ihor Zapolukh,https://www.facebook.com/ihor4ik,https://scontent-frt3-2.xx.fbcdn.net/v/t31.0-8/976322_4277151466167_1783332062_o.jpg?oh=97c94c8436daed3a28bf0adc42f6ef57&oe=5A9A1011
Tania Blindaruk,https://www.facebook.com/tania.blindaruk,https://scontent-frt3-2.xx.fbcdn.net/v/t1.0-9/20108361_1861705564080247_1382361102080554231_n.jpg?oh=07f78447ae474f63574e0e08bfa2d91d&oe=5AA88FF5
Богдан Шкляр,https://www.facebook.com/bodya.shklyar,https://scontent-frt3-2.xx.fbcdn.net/v/t1.0-9/19958970_1553721768032810_4860521661166240239_n.jpg?oh=3863ead488abd5245af94880864c2fd4&oe=5A9C17B4
Alexandr Revutsky,https://www.facebook.com/alexandr.revutsky.98,https://scontent-frt3-2.xx.fbcdn.net/v/t31.0-1/c282.0.960.960/p960x960/10506738_10150004552801856_220367501106153455_o.jpg?oh=8e3c92bb05c15479a3e2c0692c670e6e&oe=5A8AF812
Сергей Ионников,https://www.facebook.com/profile.php?id=100013023393656,https://scontent-frt3-2.xx.fbcdn.net/v/t1.0-9/13872913_104424733334973_5720001899791571651_n.jpg?oh=ef9b2912f7aa403ff78544ffa75c24f2&oe=5A92BE4A
Muzychenko Andrii,https://www.facebook.com/andrii.muz,https://scontent-frt3-2.xx.fbcdn.net/v/t1.0-9/16998933_10212234286356604_3055399229484190225_n.jpg?oh=a36017ff43da5e04d8cb5f03c7791395&oe=5A938B31
Sasha Dymov,https://www.facebook.com/sasha.dymov.5,https://scontent-frt3-2.xx.fbcdn.net/v/t1.0-9/21616130_363881664045484_6888793543656942001_n.jpg?oh=1f7a6a46de3b12ebfb89793c8078ad8d&oe=5A9C7181
Olexandr Kozakov,https://www.facebook.com/olexandr.kozakov,https://scontent-frt3-2.xx.fbcdn.net/v/t1.0-9/22688611_1627289517336996_3978323045348992557_n.jpg?oh=894b17d5a91508370f829edb2dec57a1&oe=5A89884D
Александр Шевченко,https://www.facebook.com/profile.php?id=100013108271464,https://scontent-frt3-2.xx.fbcdn.net/v/t1.0-9/14045555_126519524461656_6482271127772795413_n.jpg?oh=1bd9c8ff9b05663759423ae8b29bf0ca&oe=5AA04BFA
Andrew Alexseyenko,https://www.facebook.com/andrew.alexseyenko,https://scontent-frt3-2.xx.fbcdn.net/v/t1.0-9/17022424_1249298268484881_2196978151846246574_n.jpg?oh=f020c5cd07e61fa6e64c39d714a9e00f&oe=5AD79473
Вадим Павлюк,https://www.facebook.com/vadym.pavliuk,https://scontent-frt3-2.xx.fbcdn.net/v/t1.0-9/10665874_10203079113053847_6994733529643334697_n.jpg?oh=954c17b8575ee5235913eac9f1a23cd2&oe=5AA5565D
Aleks Makowski,https://www.facebook.com/profile.php?id=100009097155599,https://scontent-frt3-2.xx.fbcdn.net/v/t1.0-9/13886843_1634711236842099_7059168759750799726_n.jpg?oh=ebeadd74a7d6702cb2c624bf81daea3e&oe=5AA9085F
Volodymyr Mykhalchuk,https://www.facebook.com/mykhalchukv,https://scontent-frt3-2.xx.fbcdn.net/v/t1.0-9/11202437_948551441834832_247086244204640732_n.jpg?oh=83598e16147f6b78a77e68fede987cc7&oe=5A9828B0
Денис Денисенко,https://www.facebook.com/den.denis3,https://scontent-frt3-2.xx.fbcdn.net/v/t1.0-9/12508922_1020117614716195_1219924713834517220_n.jpg?oh=d4b8c1fc1ac7f2f62f08af2ee47e56a2&oe=5A9AD1F1
Kirill Sergeevich,https://www.facebook.com/ituasmm,https://scontent-frt3-2.xx.fbcdn.net/v/t1.0-9/14433177_1753619701555450_4875682652384668986_n.jpg?oh=08b2a91bec23e1fbee147c1f39a3a4b7&oe=5A8D663B
Артем Буденюк,https://www.facebook.com/profile.php?id=100001555703035,https://scontent-frt3-2.xx.fbcdn.net/v/t1.0-9/13939404_1148172388577940_1116550052812680403_n.jpg?oh=bae2435fc41529fd60756ead7036ae59&oe=5A89DDE5
Vitaliy Batrun,https://www.facebook.com/vitaliy.batrun,https://scontent-frt3-2.xx.fbcdn.net/v/t1.0-9/18813708_1698190730210797_1121347730931204073_n.jpg?oh=045bf963d0980bb1481dea373947e2c1&oe=5AA0C6C8
Sergey Tsaryov,https://www.facebook.com/tsaroff,https://scontent-frt3-2.xx.fbcdn.net/v/t1.0-9/19959225_1483974001666726_3793444209426760465_n.jpg?oh=3e252143517ebaca4079e20c010c13cb&oe=5AD23585
Yuriy Fylyuk,https://www.facebook.com/yuriy.fylyuk,https://scontent-frt3-2.xx.fbcdn.net/v/t1.0-9/14479702_1167311403339683_8621663259026391288_n.jpg?oh=363d9f9f77e9f59df6ca7c2414458180&oe=5AD23E3A
Максим Слизькоух,https://www.facebook.com/maxim.slyzkouh,https://scontent-frt3-2.xx.fbcdn.net/v/t1.0-9/11133703_1580461082205466_8979490696883684664_n.jpg?oh=2094f58e4fabd52739a7b70779f7c28f&oe=5AD49D53
Сергій Марченко,https://www.facebook.com/s.marchenko14,https://scontent-frt3-2.xx.fbcdn.net/v/t1.0-9/21231127_1883516791898760_2990962904347073160_n.jpg?oh=23860108775cdbd4787f47a83b887a20&oe=5A8A9486
Anatoliy Yerema,https://www.facebook.com/yerema,https://scontent-frt3-2.xx.fbcdn.net/v/t1.0-9/1966786_10152274451212148_1046061006_n.jpg?oh=a69cd850a58e5b0914565b660b0ca431&oe=5AD2B537
Vitalii Barash,https://www.facebook.com/vitalii.barash,https://scontent-frt3-2.xx.fbcdn.net/v/t1.0-9/13151877_1269755886387231_430907391666306713_n.jpg?oh=5ac6927c690d771083a63950071af710&oe=5A96CB8D
Петр Потопахин,https://www.facebook.com/petr.potopahin,https://scontent-frt3-2.xx.fbcdn.net/v/t1.0-9/11010292_809182602492210_5477888317407637133_n.jpg?oh=082c8cdcf39cd8c231982c6416be6c62&oe=5A9BC965
Vlad Semeniuk,https://www.facebook.com/da.semenyuk,https://scontent-frt3-2.xx.fbcdn.net/v/t1.0-9/12118994_853355768114923_5827533869472977359_n.jpg?oh=5fcb60be272bfa95eac79a680bdc7911&oe=5A8BF8DC
Max-Freddy Marx Street,https://www.facebook.com/freddymarx.street,https://scontent-frt3-2.xx.fbcdn.net/v/t1.0-9/11222340_982375121805342_3658643138962370494_n.jpg?oh=576e0df9253d61983d5a00d7cf24777b&oe=5A9A9566
Андрей Семений,https://www.facebook.com/profile.php?id=100009229362809,https://scontent-frt3-2.xx.fbcdn.net/v/t1.0-9/15977428_1752035861780709_8247750116982925960_n.jpg?oh=1a4f8691c8b38ffe634310aaa94fe66d&oe=5A8DE4D8
Yarik Kylikovskiy,https://www.facebook.com/balka.zt,https://scontent-frt3-2.xx.fbcdn.net/v/t1.0-9/23659255_1225188394291440_1165008296880852684_n.jpg?oh=3761bebb17406b2fe8b2d00c113d4562&oe=5A8E0F72
Назар Рощук,https://www.facebook.com/nazarroshchuk,https://scontent-frt3-2.xx.fbcdn.net/v/t1.0-9/10460782_757959927629197_2111234528152174536_n.jpg?oh=fb6c0468e19e4c0c90ddbe7ad2fa45f4&oe=5AD76E78
Роман Вороненко,https://www.facebook.com/vorobeyko,https://scontent-frt3-2.xx.fbcdn.net/v/t31.0-8/257114_106181522810178_8104621_o.jpg?oh=8655a1b2d6a28c905dcfc008b5c5ac60&oe=5AA4E50A
Тарас Батюк,https://www.facebook.com/profile.php?id=100004085359698,https://scontent-frt3-2.xx.fbcdn.net/v/t1.0-9/1907435_526936647452509_3840747995904889017_n.jpg?oh=cf567f42f7ce62e447a91e20afe30d2e&oe=5A8E04F0
Stanislav Zozulia,https://www.facebook.com/zozulia,https://scontent-frt3-2.xx.fbcdn.net/v/t1.0-9/15965306_1620368497980193_8893148248194846700_n.jpg?oh=f9b2d3406c93462125ef9b822f7b77df&oe=5A90F88A
Mykhailo Lavrovskyi,https://www.facebook.com/lavrovskyi,https://scontent-frt3-2.xx.fbcdn.net/v/t1.0-9/17553510_1290701951019597_8665726849988827834_n.jpg?oh=875ce9cd03126a9f548ed410049c415a&oe=5AD324D4
Olexiy Fedorchuk,https://www.facebook.com/olexiy.fedorchuk,https://scontent-frt3-2.xx.fbcdn.net/v/t1.0-9/1509681_1382203515433188_3373543982673092061_n.jpg?oh=442fda3649d502b2e2139e114f29747d&oe=5AA37488
Liubomyr Shuba,https://www.facebook.com/liubomyr.shuba,https://scontent-frt3-2.xx.fbcdn.net/v/t1.0-1/18892917_2005537406345944_5524178873240430264_n.jpg?oh=cc75e286b34ac1ca2ec8b32927909318&oe=5A9B7A57
Николай Зайнчуковский,https://www.facebook.com/n.b.claber,https://scontent-frt3-2.xx.fbcdn.net/v/t1.0-9/18527912_10213116715258415_7643824045800720852_n.jpg?oh=5b466860f57e6fea6cd523a7130beea9&oe=5AAA1393